{
    "world_objects": [
        {
            "type": "resource",
            "id": "resource_1",
            "tile_id": 1,
            "count": 100,
            "name": "Resource 1",
            "size": [2, 2]
        },
        {
            "type": "resource",
            "id": "resource_2",
            "tile_id": 7,
            "count": 20,
            "name": "Resource 2",
            "size": [2, 1]
        },
        {
            "type": "engineer_droid",
            "id": "engineer_droid_1",
            "comment": "Time to build/assemble in seconds",
            "movement_speed": 100,
            "build_time": 10,
            "name": "Bob",
            "active": false
        },
        {
            "type": "gathering_droid",
            "id": "gathering_droid_1",
            "name": "Fred",
            "comment": "Resource count gathered per second",
            "gather_rate": 2,
            "movement_speed": 100,
            "active": true,
            "spawn_tile": [5, 7]
        },
        {
            "type": "gathering_droid",
            "id": "gathering_droid_2",
            "name": "Alice",
            "gather_rate": 3,
            "movement_speed": 90,
            "spawn_tile": [3, 4],
            "active": true
        },

        {
            "type": "printer",
            "id": "parts_printer",
            "tile_id": 3,
            "size": [1, 1],
            "output": [
                {
                    "type": "part",
                    "id": "part_1",
                    "requirements": [
                        { "type": "resource", "id": "resource_1", "count": 15 },
                        { "type": "resource", "id": "resource_2", "count": 5 }
                    ]
                },
                {
                    "type": "part",
                    "id": "part_2",
                    "requirements": [{ "type": "resource", "id": "resource_2", "count": 2 }]
                }
            ]
        },
        {
            "type": "teleporter",
            "id": "teleporter",
            "requirements": [{ "product": "part_1" }, { "product": "part_2" }]
        },
        {
            "type": "printer",
            "id": "droid_printer",
            "tile_id": 3,
            "size": [1, 1],
            "output": [
                {
                    "type": "engineer_droid",
                    "id": "engineering_droid_1",
                    "requirements": [{ "type": "resource", "id": "resource_1", "count": 40 }]
                }
            ]
        },
        {
            "type": "teleporter",
            "id": "teleporter",
            "requirements": [
                { "type": "part", "id": "part_1" },
                { "type": "part", "id": "part_2" }
            ]
        }
    ]
}
