[gd_scene load_steps=2 format=2]

[ext_resource path="res://game/objects/clickable/Clickable.gd" type="Script" id=1]

[node name="Clickable" type="Control"]
margin_right = 40.0
margin_bottom = 40.0
script = ExtResource( 1 )

[node name="HoverIndicator" type="ReferenceRect" parent="."]
margin_right = 40.0
margin_bottom = 40.0
mouse_filter = 2
border_color = Color( 0.501961, 0.501961, 0.501961, 1 )
border_width = 2.0
editor_only = false

[node name="SelectionIndicator" type="ReferenceRect" parent="."]
margin_right = 40.0
margin_bottom = 40.0
mouse_filter = 2
border_color = Color( 0, 0, 0, 1 )
border_width = 2.0
editor_only = false
