[gd_scene load_steps=2 format=2]

[ext_resource path="res://game/debug-menu/DebugMenu.gd" type="Script" id=1]

[node name="DebugMenu" type="Node2D"]
script = ExtResource( 1 )

[node name="VBoxContainer" type="VBoxContainer" parent="."]
margin_right = 100.0
margin_bottom = 300.0

[node name="Win Level" type="Button" parent="VBoxContainer"]
margin_right = 101.0
margin_bottom = 20.0
size_flags_vertical = 4
text = "Win Level"

[node name="Lose Level" type="Button" parent="VBoxContainer"]
margin_top = 24.0
margin_right = 101.0
margin_bottom = 44.0
size_flags_vertical = 4
text = "Lose Level"

[node name="Stop enemies" type="Button" parent="VBoxContainer"]
margin_top = 48.0
margin_right = 101.0
margin_bottom = 68.0
size_flags_vertical = 4
text = "Stop Enemies"

[node name="Fill Resources" type="Button" parent="VBoxContainer"]
margin_top = 72.0
margin_right = 101.0
margin_bottom = 92.0
size_flags_vertical = 4
text = "Fill Resources"

[connection signal="pressed" from="VBoxContainer/Win Level" to="." method="_on_Win_Level_pressed"]
[connection signal="pressed" from="VBoxContainer/Lose Level" to="." method="_on_Lose_Level_pressed"]
[connection signal="pressed" from="VBoxContainer/Stop enemies" to="." method="_on_Stop_enemies_pressed"]
[connection signal="pressed" from="VBoxContainer/Fill Resources" to="." method="_on_Fill_Resources_pressed"]
