[gd_scene load_steps=3 format=2]

[ext_resource path="res://game/objects/turret_droid/TurretDroid.gd" type="Script" id=1]
[ext_resource path="res://game/navigation/Mover.tscn" type="PackedScene" id=3]

[node name="Droid" type="Node"]
script = ExtResource( 1 )

[node name="Mover" parent="." instance=ExtResource( 3 )]

[node name="TextureRect" type="TextureRect" parent="Mover"]
margin_right = 16.0
margin_bottom = 16.0
mouse_filter = 2
